{
  "annotations": {
    "list": [
      {
        "builtIn": 1,
        "datasource": {
          "type": "datasource",
          "uid": "grafana"
        },
        "enable": true,
        "hide": true,
        "iconColor": "rgba(0, 211, 255, 1)",
        "name": "Annotations & Alerts",
        "type": "dashboard"
      }
    ]
  },
  "description": "Pgbouncer dashboard for Grafana integrated with Percona PMM as well.",
  "editable": true,
  "fiscalYearStartMonth": 0,
  "gnetId": 13353,
  "graphTooltip": 1,
  "id": 13,
  "links": [],
  "liveNow": false,
  "panels": [
    {
      "datasource": {
        "type": "prometheus",
        "uid": "${ds}"
      },
      "description": "Config maximum number of client connections",
      "fieldConfig": {
        "defaults": {
          "color": {
            "mode": "thresholds"
          },
          "mappings": [],
          "thresholds": {
            "mode": "percentage",
            "steps": [
              {
                "color": "green",
                "value": null
              },
              {
                "color": "orange",
                "value": 70
              },
              {
                "color": "red",
                "value": 85
              }
            ]
          }
        },
        "overrides": []
      },
      "gridPos": {
        "h": 2,
        "w": 4,
        "x": 0,
        "y": 0
      },
      "id": 18,
      "options": {
        "colorMode": "background",
        "graphMode": "none",
        "justifyMode": "auto",
        "orientation": "auto",
        "reduceOptions": {
          "calcs": [
            "lastNotNull"
          ],
          "fields": "",
          "values": false
        },
        "textMode": "auto"
      },
      "pluginVersion": "10.0.3",
      "targets": [
        {
          "datasource": {
            "type": "prometheus",
            "uid": "${ds}"
          },
          "editorMode": "code",
          "exemplar": false,
          "expr": "pgbouncer_config_max_client_conn",
          "instant": true,
          "interval": "",
          "legendFormat": "",
          "range": false,
          "refId": "A"
        }
      ],
      "title": "Max Client Conn",
      "type": "stat"
    },
    {
      "datasource": {
        "type": "prometheus",
        "uid": "${ds}"
      },
      "description": "Maximum number of additional connections for this database.",
      "fieldConfig": {
        "defaults": {
          "color": {
            "mode": "thresholds"
          },
          "mappings": [],
          "thresholds": {
            "mode": "absolute",
            "steps": [
              {
                "color": "green",
                "value": null
              },
              {
                "color": "red",
                "value": 80
              }
            ]
          }
        },
        "overrides": []
      },
      "gridPos": {
        "h": 2,
        "w": 4,
        "x": 4,
        "y": 0
      },
      "id": 6,
      "options": {
        "colorMode": "background",
        "graphMode": "none",
        "justifyMode": "auto",
        "orientation": "auto",
        "reduceOptions": {
          "calcs": [
            "mean"
          ],
          "fields": "",
          "values": false
        },
        "textMode": "auto"
      },
      "pluginVersion": "10.0.3",
      "targets": [
        {
          "datasource": {
            "type": "prometheus",
            "uid": "${ds}"
          },
          "editorMode": "code",
          "exemplar": false,
          "expr": "pgbouncer_databases_database_reserve_pool_size{database=~\"$database\"}",
          "instant": true,
          "interval": "",
          "legendFormat": "{{label_name}}",
          "range": false,
          "refId": "A"
        }
      ],
      "title": "Reserved Pool",
      "type": "stat"
    },
    {
      "datasource": {
        "type": "prometheus",
        "uid": "${ds}"
      },
      "description": "Configured Pool Size Limit",
      "fieldConfig": {
        "defaults": {
          "color": {
            "mode": "thresholds"
          },
          "mappings": [],
          "thresholds": {
            "mode": "percentage",
            "steps": [
              {
                "color": "green",
                "value": null
              }
            ]
          }
        },
        "overrides": []
      },
      "gridPos": {
        "h": 2,
        "w": 4,
        "x": 8,
        "y": 0
      },
      "id": 4,
      "options": {
        "colorMode": "background",
        "graphMode": "none",
        "justifyMode": "center",
        "orientation": "auto",
        "reduceOptions": {
          "calcs": [
            "lastNotNull"
          ],
          "fields": "",
          "values": false
        },
        "textMode": "auto"
      },
      "pluginVersion": "10.0.3",
      "targets": [
        {
          "datasource": {
            "type": "prometheus",
            "uid": "${ds}"
          },
          "editorMode": "code",
          "exemplar": false,
          "expr": "pgbouncer_databases_database_pool_size{database=~\"$database\"}",
          "format": "table",
          "instant": true,
          "interval": "",
          "legendFormat": "{{database}}",
          "range": false,
          "refId": "A"
        }
      ],
      "title": "Pool Size",
      "type": "stat"
    },
    {
      "datasource": {
        "type": "prometheus",
        "uid": "${ds}"
      },
      "description": "Database maximum number of allowed connections",
      "fieldConfig": {
        "defaults": {
          "color": {
            "mode": "thresholds"
          },
          "mappings": [],
          "thresholds": {
            "mode": "absolute",
            "steps": [
              {
                "color": "green",
                "value": null
              },
              {
                "color": "red",
                "value": 80
              }
            ]
          }
        },
        "overrides": []
      },
      "gridPos": {
        "h": 2,
        "w": 4,
        "x": 12,
        "y": 0
      },
      "id": 17,
      "options": {
        "colorMode": "background",
        "graphMode": "none",
        "justifyMode": "auto",
        "orientation": "auto",
        "reduceOptions": {
          "calcs": [
            "mean"
          ],
          "fields": "",
          "values": false
        },
        "textMode": "auto"
      },
      "pluginVersion": "10.0.3",
      "targets": [
        {
          "datasource": {
            "type": "prometheus",
            "uid": "${ds}"
          },
          "editorMode": "code",
          "exemplar": false,
          "expr": "pgbouncer_databases_database_max_connections{database=~\"$database\"}",
          "instant": true,
          "interval": "",
          "legendFormat": "",
          "range": false,
          "refId": "A"
        }
      ],
      "title": "Max DB Conn",
      "type": "stat"
    },
    {
      "datasource": {
        "type": "prometheus",
        "uid": "${ds}"
      },
      "description": "Config maximum number of server connections per user",
      "fieldConfig": {
        "defaults": {
          "color": {
            "mode": "thresholds"
          },
          "mappings": [],
          "thresholds": {
            "mode": "absolute",
            "steps": [
              {
                "color": "green",
                "value": null
              },
              {
                "color": "red",
                "value": 80
              }
            ]
          }
        },
        "overrides": []
      },
      "gridPos": {
        "h": 2,
        "w": 4,
        "x": 16,
        "y": 0
      },
      "id": 19,
      "options": {
        "colorMode": "background",
        "graphMode": "none",
        "justifyMode": "auto",
        "orientation": "auto",
        "reduceOptions": {
          "calcs": [
            "mean"
          ],
          "fields": "",
          "values": false
        },
        "textMode": "auto"
      },
      "pluginVersion": "10.0.3",
      "targets": [
        {
          "datasource": {
            "type": "prometheus",
            "uid": "${ds}"
          },
          "editorMode": "code",
          "exemplar": false,
          "expr": "pgbouncer_config_max_user_connections",
          "format": "time_series",
          "instant": true,
          "interval": "",
          "legendFormat": "",
          "range": false,
          "refId": "A"
        }
      ],
      "title": "Max User Conn",
      "type": "stat"
    },
    {
      "datasource": {
        "type": "prometheus",
        "uid": "${ds}"
      },
      "fieldConfig": {
        "defaults": {
          "color": {
            "mode": "palette-classic"
          },
          "custom": {
            "axisCenteredZero": false,
            "axisColorMode": "text",
            "axisLabel": "",
            "axisPlacement": "auto",
            "barAlignment": 0,
            "drawStyle": "line",
            "fillOpacity": 0,
            "gradientMode": "none",
            "hideFrom": {
              "legend": false,
              "tooltip": false,
              "viz": false
            },
            "lineInterpolation": "linear",
            "lineWidth": 2,
            "pointSize": 5,
            "scaleDistribution": {
              "type": "linear"
            },
            "showPoints": "never",
            "spanNulls": false,
            "stacking": {
              "group": "A",
              "mode": "none"
            },
            "thresholdsStyle": {
              "mode": "off"
            }
          },
          "links": [],
          "mappings": [],
          "thresholds": {
            "mode": "absolute",
            "steps": [
              {
                "color": "green",
                "value": null
              }
            ]
          },
          "unit": "short"
        },
        "overrides": [
          {
            "matcher": {
              "id": "byName",
              "options": "Max pool size"
            },
            "properties": [
              {
                "id": "custom.lineStyle",
                "value": {
                  "dash": [
                    10,
                    10
                  ],
                  "fill": "dash"
                }
              },
              {
                "id": "color",
                "value": {
                  "fixedColor": "dark-red",
                  "mode": "fixed"
                }
              }
            ]
          },
          {
            "matcher": {
              "id": "byName",
              "options": "Max user connections"
            },
            "properties": [
              {
                "id": "custom.lineStyle",
                "value": {
                  "dash": [
                    10,
                    10
                  ],
                  "fill": "dash"
                }
              },
              {
                "id": "color",
                "value": {
                  "fixedColor": "dark-orange",
                  "mode": "fixed"
                }
              }
            ]
          }
        ]
      },
      "gridPos": {
        "h": 10,
        "w": 12,
        "x": 0,
        "y": 2
      },
      "id": 46,
      "links": [],
      "options": {
        "legend": {
          "calcs": [
            "mean",
            "lastNotNull",
            "max",
            "min"
          ],
          "displayMode": "table",
          "placement": "bottom",
          "showLegend": true,
          "sortBy": "Last *",
          "sortDesc": true
        },
        "tooltip": {
          "mode": "multi",
          "sort": "none"
        }
      },
      "pluginVersion": "10.0.3",
      "targets": [
        {
          "datasource": {
            "type": "prometheus",
            "uid": "${ds}"
          },
          "editorMode": "code",
          "expr": "pgbouncer_pools_client_active_connections{database=~\"$database\"}",
          "format": "time_series",
          "instant": false,
          "intervalFactor": 1,
          "legendFormat": "Client active connections ",
          "refId": "A"
        },
        {
          "datasource": {
            "type": "prometheus",
            "uid": "${ds}"
          },
          "editorMode": "code",
          "expr": "pgbouncer_pools_client_waiting_connections{database=~\"$database\"}",
          "format": "time_series",
          "intervalFactor": 1,
          "legendFormat": "Client waiting connections",
          "range": true,
          "refId": "C"
        }
      ],
      "title": "Pgbouncer pools connections [clients]",
      "type": "timeseries"
    },
    {
      "datasource": {
        "type": "prometheus",
        "uid": "${ds}"
      },
      "fieldConfig": {
        "defaults": {
          "color": {
            "mode": "palette-classic"
          },
          "custom": {
            "axisCenteredZero": false,
            "axisColorMode": "text",
            "axisLabel": "",
            "axisPlacement": "auto",
            "barAlignment": 0,
            "drawStyle": "line",
            "fillOpacity": 0,
            "gradientMode": "none",
            "hideFrom": {
              "legend": false,
              "tooltip": false,
              "viz": false
            },
            "lineInterpolation": "linear",
            "lineWidth": 2,
            "pointSize": 5,
            "scaleDistribution": {
              "type": "linear"
            },
            "showPoints": "never",
            "spanNulls": false,
            "stacking": {
              "group": "A",
              "mode": "none"
            },
            "thresholdsStyle": {
              "mode": "off"
            }
          },
          "links": [],
          "mappings": [],
          "thresholds": {
            "mode": "absolute",
            "steps": [
              {
                "color": "green",
                "value": null
              },
              {
                "color": "red",
                "value": 80
              }
            ]
          },
          "unit": "short"
        },
        "overrides": [
          {
            "matcher": {
              "id": "byName",
              "options": "Max pool size"
            },
            "properties": [
              {
                "id": "custom.lineStyle",
                "value": {
                  "dash": [
                    10,
                    10
                  ],
                  "fill": "dash"
                }
              },
              {
                "id": "color",
                "value": {
                  "fixedColor": "dark-red",
                  "mode": "fixed"
                }
              }
            ]
          },
          {
            "matcher": {
              "id": "byName",
              "options": "Max user connections"
            },
            "properties": [
              {
                "id": "custom.lineStyle",
                "value": {
                  "dash": [
                    10,
                    10
                  ],
                  "fill": "dash"
                }
              },
              {
                "id": "color",
                "value": {
                  "fixedColor": "dark-orange",
                  "mode": "fixed"
                }
              }
            ]
          }
        ]
      },
      "gridPos": {
        "h": 10,
        "w": 12,
        "x": 12,
        "y": 2
      },
      "id": 48,
      "links": [],
      "options": {
        "legend": {
          "calcs": [
            "mean",
            "lastNotNull",
            "max",
            "min"
          ],
          "displayMode": "table",
          "placement": "bottom",
          "showLegend": true,
          "sortBy": "Last *",
          "sortDesc": true
        },
        "tooltip": {
          "mode": "multi",
          "sort": "none"
        }
      },
      "pluginVersion": "10.0.3",
      "targets": [
        {
          "datasource": {
            "type": "prometheus",
            "uid": "${ds}"
          },
          "editorMode": "code",
          "expr": "pgbouncer_pools_server_active_connections{database=~\"$database\"}",
          "format": "time_series",
          "intervalFactor": 1,
          "legendFormat": "Server active connections",
          "range": true,
          "refId": "B"
        },
        {
          "datasource": {
            "type": "prometheus",
            "uid": "${ds}"
          },
          "editorMode": "code",
          "expr": "pgbouncer_pools_server_idle_connections{database=~\"$database\"}",
          "format": "time_series",
          "intervalFactor": 1,
          "legendFormat": "Server idle connections",
          "range": true,
          "refId": "D"
        },
        {
          "datasource": {
            "type": "prometheus",
            "uid": "${ds}"
          },
          "editorMode": "code",
          "expr": "pgbouncer_pools_server_used_connections{database=~\"$database\"}",
          "format": "time_series",
          "intervalFactor": 1,
          "legendFormat": "Server used connections",
          "range": true,
          "refId": "E"
        },
        {
          "datasource": {
            "type": "prometheus",
            "uid": "${ds}"
          },
          "editorMode": "code",
          "expr": "pgbouncer_pools_server_testing_connections{database=~\"$database\"}",
          "format": "time_series",
          "intervalFactor": 1,
          "legendFormat": "Server testing connections",
          "range": true,
          "refId": "F"
        },
        {
          "datasource": {
            "type": "prometheus",
            "uid": "${ds}"
          },
          "editorMode": "code",
          "expr": "pgbouncer_pools_server_login_connections{database=~\"$database\"}",
          "format": "time_series",
          "intervalFactor": 1,
          "legendFormat": "Server login connections",
          "range": true,
          "refId": "G"
        },
        {
          "datasource": {
            "type": "prometheus",
            "uid": "${ds}"
          },
          "editorMode": "code",
          "expr": "pgbouncer_databases_database_current_connections{database=~\"$database\"}",
          "format": "time_series",
          "intervalFactor": 1,
          "legendFormat": "Database current connections",
          "range": true,
          "refId": "H"
        },
        {
          "datasource": {
            "type": "prometheus",
            "uid": "${ds}"
          },
          "editorMode": "code",
          "expr": "pgbouncer_databases_database_pool_size{database=~\"$database\"}",
          "hide": false,
          "instant": false,
          "legendFormat": "Max pool size",
          "range": true,
          "refId": "A"
        },
        {
          "datasource": {
            "type": "prometheus",
            "uid": "${ds}"
          },
          "editorMode": "code",
          "expr": "pgbouncer_config_max_user_connections",
          "hide": false,
          "instant": false,
          "legendFormat": "Max user connections",
          "range": true,
          "refId": "C"
        }
      ],
      "title": "Pgbouncer pools connections [server]",
      "type": "timeseries"
    },
    {
      "datasource": {
        "type": "prometheus",
        "uid": "${ds}"
      },
      "fieldConfig": {
        "defaults": {
          "color": {
            "mode": "palette-classic"
          },
          "custom": {
            "axisCenteredZero": false,
            "axisColorMode": "text",
            "axisLabel": "",
            "axisPlacement": "auto",
            "barAlignment": 0,
            "drawStyle": "line",
            "fillOpacity": 20,
            "gradientMode": "none",
            "hideFrom": {
              "legend": false,
              "tooltip": false,
              "viz": false
            },
            "lineInterpolation": "linear",
            "lineWidth": 2,
            "pointSize": 5,
            "scaleDistribution": {
              "type": "linear"
            },
            "showPoints": "never",
            "spanNulls": false,
            "stacking": {
              "group": "A",
              "mode": "none"
            },
            "thresholdsStyle": {
              "mode": "off"
            }
          },
          "links": [],
          "mappings": [],
          "thresholds": {
            "mode": "absolute",
            "steps": [
              {
                "color": "green",
                "value": null
              }
            ]
          },
          "unit": "µs"
        },
        "overrides": [
          {
            "matcher": {
              "id": "byName",
              "options": "Total"
            },
            "properties": [
              {
                "id": "custom.axisPlacement",
                "value": "right"
              },
              {
                "id": "unit",
                "value": "short"
              }
            ]
          }
        ]
      },
      "gridPos": {
        "h": 10,
        "w": 24,
        "x": 0,
        "y": 12
      },
      "id": 47,
      "links": [],
      "options": {
        "legend": {
          "calcs": [
            "mean",
            "lastNotNull",
            "max",
            "min"
          ],
          "displayMode": "table",
          "placement": "bottom",
          "showLegend": true
        },
        "tooltip": {
          "mode": "multi",
          "sort": "none"
        }
      },
      "pluginVersion": "10.0.3",
      "targets": [
        {
          "datasource": {
            "type": "prometheus",
            "uid": "${ds}"
          },
          "editorMode": "code",
          "expr": "sort_desc( sum by (database) ( rate(pgbouncer_stats_transactions_duration_microseconds_total{database=~\"$database\"}[1m]) ) )  ",
          "format": "time_series",
          "intervalFactor": 1,
          "legendFormat": "Duration",
          "range": true,
          "refId": "D"
        },
        {
          "datasource": {
            "type": "prometheus",
            "uid": "${ds}"
          },
          "editorMode": "code",
          "expr": "sort_desc( sum by (database) ( rate(pgbouncer_stats_transactions_total{database=~\"$database\"}[1m]) ) )",
          "format": "time_series",
          "hide": false,
          "intervalFactor": 1,
          "legendFormat": "Total",
          "range": true,
          "refId": "A"
        }
      ],
      "title": "Transactions stats $database",
      "type": "timeseries"
    },
    {
      "datasource": {
        "type": "prometheus",
        "uid": "${ds}"
      },
      "description": "Total volume in bytes of network traffic sent / received by pgbouncer",
      "fieldConfig": {
        "defaults": {
          "color": {
            "mode": "palette-classic"
          },
          "custom": {
            "axisCenteredZero": false,
            "axisColorMode": "text",
            "axisLabel": "",
            "axisPlacement": "auto",
            "barAlignment": 0,
            "drawStyle": "line",
            "fillOpacity": 30,
            "gradientMode": "none",
            "hideFrom": {
              "legend": false,
              "tooltip": false,
              "viz": false
            },
            "lineInterpolation": "linear",
            "lineWidth": 2,
            "pointSize": 5,
            "scaleDistribution": {
              "type": "linear"
            },
            "showPoints": "never",
            "spanNulls": false,
            "stacking": {
              "group": "A",
              "mode": "none"
            },
            "thresholdsStyle": {
              "mode": "off"
            }
          },
          "mappings": [],
          "thresholds": {
            "mode": "absolute",
            "steps": [
              {
                "color": "green",
                "value": null
              },
              {
                "color": "red",
                "value": 80
              }
            ]
          },
          "unit": "bytes"
        },
        "overrides": [
          {
            "matcher": {
              "id": "byName",
              "options": "Stats received bytes total"
            },
            "properties": [
              {
                "id": "color",
                "value": {
                  "fixedColor": "#3333ff",
                  "mode": "fixed"
                }
              }
            ]
          },
          {
            "matcher": {
              "id": "byName",
              "options": "Stats sent bytes total"
            },
            "properties": [
              {
                "id": "color",
                "value": {
                  "fixedColor": "#00aa00",
                  "mode": "fixed"
                }
              }
            ]
          },
          {
            "matcher": {
              "id": "byName",
              "options": "academy_core_prod, : Stats received bytes total"
            },
            "properties": [
              {
                "id": "color",
                "value": {
                  "fixedColor": "#a5d8dd",
                  "mode": "fixed"
                }
              }
            ]
          },
          {
            "matcher": {
              "id": "byName",
              "options": "academy_core_prod, : Stats sent bytes total"
            },
            "properties": [
              {
                "id": "color",
                "value": {
                  "fixedColor": "#0091d5",
                  "mode": "fixed"
                }
              }
            ]
          },
          {
            "matcher": {
              "id": "byName",
              "options": "academy_core_prod: Stats received bytes total"
            },
            "properties": [
              {
                "id": "color",
                "value": {
                  "fixedColor": "#a5d8dd",
                  "mode": "fixed"
                }
              }
            ]
          },
          {
            "matcher": {
              "id": "byName",
              "options": "academy_core_prod: Stats sent bytes total"
            },
            "properties": [
              {
                "id": "color",
                "value": {
                  "fixedColor": "#0091d5",
                  "mode": "fixed"
                }
              }
            ]
          },
          {
            "matcher": {
              "id": "byRegexp",
              "options": "/.*sent.*/"
            },
            "properties": [
              {
                "id": "custom.transform",
                "value": "negative-Y"
              }
            ]
          },
          {
            "matcher": {
              "id": "byValue",
              "options": {
                "op": "gte",
                "reducer": "allIsZero",
                "value": 0
              }
            },
            "properties": [
              {
                "id": "custom.hideFrom",
                "value": {
                  "legend": true,
                  "tooltip": true,
                  "viz": false
                }
              }
            ]
          },
          {
            "matcher": {
              "id": "byValue",
              "options": {
                "op": "gte",
                "reducer": "allIsNull",
                "value": 0
              }
            },
            "properties": [
              {
                "id": "custom.hideFrom",
                "value": {
                  "legend": true,
                  "tooltip": true,
                  "viz": false
                }
              }
            ]
          }
        ]
      },
      "gridPos": {
        "h": 6,
        "w": 24,
        "x": 0,
        "y": 22
      },
      "id": 44,
      "links": [],
      "options": {
        "legend": {
          "calcs": [
            "mean",
            "lastNotNull",
            "max",
            "min"
          ],
          "displayMode": "table",
          "placement": "right",
          "showLegend": true
        },
        "tooltip": {
          "mode": "multi",
          "sort": "none"
        }
      },
      "pluginVersion": "10.0.3",
      "targets": [
        {
          "datasource": {
            "type": "prometheus",
            "uid": "${ds}"
          },
          "expr": "sort_desc( sum by (database,hostname) ( rate(pgbouncer_stats_received_bytes_total{database=~\"$database\"}[1m])*8 ) )",
          "format": "time_series",
          "hide": false,
          "interval": "",
          "intervalFactor": 1,
          "legendFormat": "{{ database }}: Stats received bytes total",
          "refId": "B"
        },
        {
          "datasource": {
            "type": "prometheus",
            "uid": "${ds}"
          },
          "expr": "sort_desc( sum by (database,hostname) ( rate(pgbouncer_stats_sent_bytes_total{database=~\"$database\"}[1m])*8 ) )",
          "format": "time_series",
          "interval": "",
          "intervalFactor": 1,
          "legendFormat": "{{ database }}: Stats sent bytes total",
          "refId": "C"
        }
      ],
      "title": "Total of incoming / outgoing bytes",
      "type": "timeseries"
    }
  ],
  "refresh": "5s",
  "schemaVersion": 38,
  "style": "dark",
  "tags": [],
  "templating": {
    "list": [
      {
        "current": {
          "selected": false,
          "text": "demo_wallet",
          "value": "demo_wallet"
        },
        "datasource": {
          "type": "prometheus",
          "uid": "${ds}"
        },
        "definition": "pgbouncer_databases_database_max_connections",
        "hide": 0,
        "includeAll": false,
        "label": "Database",
        "multi": false,
        "name": "database",
        "options": [],
        "query": {
          "query": "pgbouncer_databases_database_max_connections",
          "refId": "PrometheusVariableQueryEditor-VariableQuery"
        },
        "refresh": 1,
        "regex": "/.*backend_database=\"([^\"]*).*/",
        "skipUrlSync": false,
        "sort": 0,
        "tagValuesQuery": "",
        "tagsQuery": "",
        "type": "query",
        "useTags": false
      },
      {
        "current": {
          "selected": false,
          "text": "Prometheus",
          "value": "Prometheus"
        },
        "hide": 0,
        "includeAll": false,
        "multi": false,
        "name": "ds",
        "options": [],
        "query": "prometheus",
        "refresh": 1,
        "regex": "",
        "skipUrlSync": false,
        "type": "datasource"
      }
    ]
  },
  "time": {
    "from": "now-15m",
    "to": "now"
  },
  "timepicker": {
    "refresh_intervals": [
      "5s",
      "10s",
      "30s",
      "1m",
      "5m",
      "15m",
      "30m",
      "1h",
      "2h",
      "1d"
    ]
  },
  "timezone": "",
  "title": "PGbouncer",
  "uid": "NyA9U0hMk",
  "version": 25,
  "weekStart": ""
}