module gitlab.ru/rkosykh/demo-wallet/pkg/api/demo-wallet

go 1.20

require (
	github.com/grpc-ecosystem/grpc-gateway/v2 v2.16.2
	google.golang.org/genproto/googleapis/api v0.0.0-20230821184602-ccc8af3d0e93
	google.golang.org/grpc v1.57.0
	google.golang.org/protobuf v1.31.0
)

require (
	github.com/golang/protobuf v1.5.3 // indirect
	golang.org/x/net v0.12.0 // indirect
	golang.org/x/sys v0.10.0 // indirect
	golang.org/x/text v0.11.0 // indirect
	google.golang.org/genproto v0.0.0-20230803162519-f966b187b2e5 // indirect
	google.golang.org/genproto/googleapis/rpc v0.0.0-20230803162519-f966b187b2e5 // indirect
)
